%YAML 1.1
%TAG !u! tag:unity3d.com,2011:
--- !u!74 &7400000
AnimationClip:
  m_ObjectHideFlags: 0
  m_CorrespondingSourceObject: {fileID: 0}
  m_PrefabInstance: {fileID: 0}
  m_PrefabAsset: {fileID: 0}
  m_Name: PlayerShoot
  serializedVersion: 6
  m_Legacy: 0
  m_Compressed: 0
  m_UseHighQualityCurve: 1
  m_RotationCurves: []
  m_CompressedRotationCurves: []
  m_EulerCurves: []
  m_PositionCurves: []
  m_ScaleCurves: []
  m_FloatCurves: []
  m_PPtrCurves:
  - curve:
    - time: 0
      value: {fileID: 21300000, guid: 5f1162fabdd1e41328cb67a75925857b, type: 3}
    - time: 0.083333336
      value: {fileID: 21300000, guid: ba1fe1fcead094a2891a6e84a164263c, type: 3}
    - time: 0.16666667
      value: {fileID: 21300000, guid: c249dfafae90a4b0c91ddc7bbce30eb2, type: 3}
    - time: 0.25
      value: {fileID: 21300000, guid: 39d7844003d5b45829ee8cd6f350cc6f, type: 3}
    - time: 0.33333334
      value: {fileID: 21300000, guid: 14c58dbbed4654822aefbb0dd7b63101, type: 3}
    - time: 0.41666666
      value: {fileID: 21300000, guid: e42907980b8f94fa3b4eca1abdf4ca10, type: 3}
    - time: 0.5
      value: {fileID: 21300000, guid: 6f3f3005cf2f74f2e9b2cedb78057d00, type: 3}
    - time: 0.5833333
      value: {fileID: 21300000, guid: 03406156762e34baf9d0d355876d15f4, type: 3}
    - time: 0.6666667
      value: {fileID: 21300000, guid: cc6d06f4d0ea9425685eecb50935fb2d, type: 3}
    - time: 0.75
      value: {fileID: 21300000, guid: ddec06e82d5c44981bbc82f3ce6d01cf, type: 3}
    attribute: m_Sprite
    path: 
    classID: 212
    script: {fileID: 0}
  m_SampleRate: 12
  m_WrapMode: 0
  m_Bounds:
    m_Center: {x: 0, y: 0, z: 0}
    m_Extent: {x: 0, y: 0, z: 0}
  m_ClipBindingConstant:
    genericBindings:
    - serializedVersion: 2
      path: 0
      attribute: 0
      script: {fileID: 0}
      typeID: 212
      customType: 23
      isPPtrCurve: 1
    pptrCurveMapping:
    - {fileID: 21300000, guid: 5f1162fabdd1e41328cb67a75925857b, type: 3}
    - {fileID: 21300000, guid: ba1fe1fcead094a2891a6e84a164263c, type: 3}
    - {fileID: 21300000, guid: c249dfafae90a4b0c91ddc7bbce30eb2, type: 3}
    - {fileID: 21300000, guid: 39d7844003d5b45829ee8cd6f350cc6f, type: 3}
    - {fileID: 21300000, guid: 14c58dbbed4654822aefbb0dd7b63101, type: 3}
    - {fileID: 21300000, guid: e42907980b8f94fa3b4eca1abdf4ca10, type: 3}
    - {fileID: 21300000, guid: 6f3f3005cf2f74f2e9b2cedb78057d00, type: 3}
    - {fileID: 21300000, guid: 03406156762e34baf9d0d355876d15f4, type: 3}
    - {fileID: 21300000, guid: cc6d06f4d0ea9425685eecb50935fb2d, type: 3}
    - {fileID: 21300000, guid: ddec06e82d5c44981bbc82f3ce6d01cf, type: 3}
  m_AnimationClipSettings:
    serializedVersion: 2
    m_AdditiveReferencePoseClip: {fileID: 0}
    m_AdditiveReferencePoseTime: 0
    m_StartTime: 0
    m_StopTime: 0.8333333
    m_OrientationOffsetY: 0
    m_Level: 0
    m_CycleOffset: 0
    m_HasAdditiveReferencePose: 0
    m_LoopTime: 0
    m_LoopBlend: 0
    m_LoopBlendOrientation: 0
    m_LoopBlendPositionY: 0
    m_LoopBlendPositionXZ: 0
    m_KeepOriginalOrientation: 0
    m_KeepOriginalPositionY: 1
    m_KeepOriginalPositionXZ: 0
    m_HeightFromFeet: 0
    m_Mirror: 0
  m_EditorCurves: []
  m_EulerEditorCurves: []
  m_HasGenericRootTransform: 0
  m_HasMotionFloatCurves: 0
  m_Events: []
