%YAML 1.1
%TAG !u! tag:unity3d.com,2011:
--- !u!74 &7400000
AnimationClip:
  m_ObjectHideFlags: 0
  m_CorrespondingSourceObject: {fileID: 0}
  m_PrefabInstance: {fileID: 0}
  m_PrefabAsset: {fileID: 0}
  m_Name: EnemyIdle
  serializedVersion: 6
  m_Legacy: 0
  m_Compressed: 0
  m_UseHighQualityCurve: 1
  m_RotationCurves: []
  m_CompressedRotationCurves: []
  m_EulerCurves: []
  m_PositionCurves: []
  m_ScaleCurves: []
  m_FloatCurves: []
  m_PPtrCurves:
  - curve:
    - time: 0
      value: {fileID: 21300000, guid: 07fdb64232c5645bd8d3a3f251285177, type: 3}
    - time: 0.083333336
      value: {fileID: 21300000, guid: 588f20be6a2d94a569b37e63eb1097d8, type: 3}
    - time: 0.16666667
      value: {fileID: 21300000, guid: 09e95c576465c4a6fb199e2564e18485, type: 3}
    - time: 0.25
      value: {fileID: 21300000, guid: 8c2a14b7e2af14653ab4890003f12fdc, type: 3}
    - time: 0.33333334
      value: {fileID: 21300000, guid: dd9bc029571f24e71a0d1d58255e4660, type: 3}
    - time: 0.41666666
      value: {fileID: 21300000, guid: 72132cf2c5e6849e6a4013f1fb8af777, type: 3}
    - time: 0.5
      value: {fileID: 21300000, guid: 8f44c3ddafd2748cb9aa7955af589bc7, type: 3}
    - time: 0.5833333
      value: {fileID: 21300000, guid: 8c02b9814fe2e4882949f2e2658254e7, type: 3}
    - time: 0.6666667
      value: {fileID: 21300000, guid: 55e3076fe4296438da634fe155b6afb8, type: 3}
    - time: 0.75
      value: {fileID: 21300000, guid: 1efbec6b8c30b4db2b895689e2814682, type: 3}
    attribute: m_Sprite
    path: 
    classID: 212
    script: {fileID: 0}
  m_SampleRate: 12
  m_WrapMode: 0
  m_Bounds:
    m_Center: {x: 0, y: 0, z: 0}
    m_Extent: {x: 0, y: 0, z: 0}
  m_ClipBindingConstant:
    genericBindings:
    - serializedVersion: 2
      path: 0
      attribute: 0
      script: {fileID: 0}
      typeID: 212
      customType: 23
      isPPtrCurve: 1
    pptrCurveMapping:
    - {fileID: 21300000, guid: 07fdb64232c5645bd8d3a3f251285177, type: 3}
    - {fileID: 21300000, guid: 588f20be6a2d94a569b37e63eb1097d8, type: 3}
    - {fileID: 21300000, guid: 09e95c576465c4a6fb199e2564e18485, type: 3}
    - {fileID: 21300000, guid: 8c2a14b7e2af14653ab4890003f12fdc, type: 3}
    - {fileID: 21300000, guid: dd9bc029571f24e71a0d1d58255e4660, type: 3}
    - {fileID: 21300000, guid: 72132cf2c5e6849e6a4013f1fb8af777, type: 3}
    - {fileID: 21300000, guid: 8f44c3ddafd2748cb9aa7955af589bc7, type: 3}
    - {fileID: 21300000, guid: 8c02b9814fe2e4882949f2e2658254e7, type: 3}
    - {fileID: 21300000, guid: 55e3076fe4296438da634fe155b6afb8, type: 3}
    - {fileID: 21300000, guid: 1efbec6b8c30b4db2b895689e2814682, type: 3}
  m_AnimationClipSettings:
    serializedVersion: 2
    m_AdditiveReferencePoseClip: {fileID: 0}
    m_AdditiveReferencePoseTime: 0
    m_StartTime: 0
    m_StopTime: 0.8333333
    m_OrientationOffsetY: 0
    m_Level: 0
    m_CycleOffset: 0
    m_HasAdditiveReferencePose: 0
    m_LoopTime: 1
    m_LoopBlend: 0
    m_LoopBlendOrientation: 0
    m_LoopBlendPositionY: 0
    m_LoopBlendPositionXZ: 0
    m_KeepOriginalOrientation: 0
    m_KeepOriginalPositionY: 1
    m_KeepOriginalPositionXZ: 0
    m_HeightFromFeet: 0
    m_Mirror: 0
  m_EditorCurves: []
  m_EulerEditorCurves: []
  m_HasGenericRootTransform: 0
  m_HasMotionFloatCurves: 0
  m_Events: []
